2017-03-31 01:14:27 642【一般訊息】傳送訂單編號 : N0002525  NargoOrders Id : 13
2017-03-31 01:14:28 616【一般訊息】傳送的JSON : {
  "OpenKey":"$2a$10$iKZ02bawTYTv7F1kIe6B1..ZOqzlcTUSD0vCyzw1PDXUyZJ.eKA4m",
  "Action":"add",
  "OrderData":{
    "OrderDetailses":[
      {
        "Subject":"【南興】京醬排骨冬粉",
        "Productkey":null,
        "Price":150.0,
        "Quantity":5,
        "TotalPrice":750.0,
        "ProductId":786,
        "InitDate":"2017-03-31T01:07:59.593"
      }
    ],
    "OrderName":"Nicole Yu",
    "OrderEmail":"pqiopqio09115@yahoo.com.tw",
    "OrderTelphone":"0938363936",
    "OrderMobile":"0938363936",
    "OrderAddress":"台北市北投區中和街57巷8號1樓",
    "ShippingName":"Nicole Yu",
    "ShippingEmail":"pqiopqio09115@yahoo.com.tw",
    "ShippingTelphone":"0938363936",
    "ShippingMobile":"0938363936",
    "ShippingAddress":"台北市北投區中和街57巷8號1樓",
    "PayType":0,
    "ShippingType":null,
    "OrderStatus":1,
    "Subtotal":750.0,
    "ShippingFee":100.0,
    "Total":850.0,
    "PayMomo":null,
    "PayDate":null,
    "OrderMomo":null,
    "OrderId":"N0002525",
    "StoreName":"fun2tw",
    "StoreUrl":"https://ec.fun2tw.com",
    "Comment":"none",
    "InitDate":"2017-03-31T01:07:59.61"
  }
}
2017-03-31 01:14:28 740【一般訊息】傳送訂單回傳 : {"date":"2017-03-31 01:14:38","order_id":1611270133}



2017-03-31 01:14:29 009【一般訊息】date : 2017-03-31 01:14:38
2017-03-31 01:14:29 009【一般訊息】stats : 
2017-03-31 01:14:29 010【一般訊息】error : 
2017-03-31 01:14:29 010【一般訊息】order_id : 1611270133
2017-03-31 01:14:29 010【一般訊息】repeat id : 
2017-03-31 01:14:29 011【一般訊息】repeat nargo id : 
2017-03-31 01:14:29 011【一般訊息】傳送結束
2017-03-31 01:30:59 707【一般訊息】查詢訂單狀態  訂單編號 : N0002525
2017-03-31 01:30:59 783【一般訊息】傳送的JSON : {
  "OpenKey": "$2a$10$zVDXMGxnpBiw0XKnmAdWfeyiemwoPDcX00yWYC39jISw1YKG11RTy",
  "Action": "get",
  "OrderData": {
    "StoreName": "fun2tw",
    "OrderId": "N0002525"
  }
}
2017-03-31 01:30:59 909【一般訊息】查詢訂單狀態回傳 : {"date":"2017-03-31 01:31:09","status_code":"1","status":"\u5f85\u8655\u7406","order_id":"1611270133"}



2017-03-31 01:30:59 913【一般訊息】date : 2017-03-31 01:31:09
2017-03-31 01:30:59 913【一般訊息】status_code : 1
2017-03-31 01:30:59 914【一般訊息】status : 待處理
2017-03-31 01:30:59 914【一般訊息】order_id : 1611270133
