2017-10-18 10:36:54 007【一般訊息】查詢訂單狀態  訂單編號 : N0002558
2017-10-18 10:36:54 119【一般訊息】傳送的JSON : {
  "OpenKey": "$2a$10$cn.uen.E.qfDbc23NA0gyezRAjM.14VbvcCtIAGOELbCIuB.f/5Zi",
  "Action": "get",
  "OrderData": {
    "StoreName": "ptbus",
    "OrderId": "N0002558"
  }
}
2017-10-18 10:36:54 270【一般訊息】查詢訂單狀態回傳 : {"date":"2017-10-18 10:37:10","status_code":"0","status":null,"order_id":"1611270143"}



2017-10-18 10:36:54 367【一般訊息】date : 2017-10-18 10:37:10
2017-10-18 10:36:54 367【一般訊息】status_code : 0
2017-10-18 10:36:54 368【一般訊息】status : 
2017-10-18 10:36:54 368【一般訊息】order_id : 1611270143
2017-10-18 10:36:55 291【一般訊息】查詢訂單狀態  訂單編號 : N0002556
2017-10-18 10:36:55 291【一般訊息】傳送的JSON : {
  "OpenKey": "$2a$10$WQfg1p0zf4u1I6njARAiNuLsWEN363k/.DH96dFj.jHy/CJUqqh7q",
  "Action": "get",
  "OrderData": {
    "StoreName": "ptbus",
    "OrderId": "N0002556"
  }
}
2017-10-18 10:36:55 404【一般訊息】查詢訂單狀態回傳 : {"date":"2017-10-18 10:37:11","status_code":"0","status":null,"order_id":"1611270144"}



2017-10-18 10:36:55 405【一般訊息】date : 2017-10-18 10:37:11
2017-10-18 10:36:55 406【一般訊息】status_code : 0
2017-10-18 10:36:55 406【一般訊息】status : 
2017-10-18 10:36:55 407【一般訊息】order_id : 1611270144
2017-10-18 10:36:56 148【一般訊息】查詢訂單狀態  訂單編號 : N0002555
2017-10-18 10:36:56 149【一般訊息】傳送的JSON : {
  "OpenKey": "$2a$10$jaUbFJelWMl/kf2d.cBam.IoGELxINySn.3wN7LzLaCsB3VBUfWjK",
  "Action": "get",
  "OrderData": {
    "StoreName": "ptbus",
    "OrderId": "N0002555"
  }
}
2017-10-18 10:36:56 263【一般訊息】查詢訂單狀態回傳 : {"date":"2017-10-18 10:37:12","error":"no order id"}



2017-10-18 10:36:56 264【一般訊息】date : 2017-10-18 10:37:12
2017-10-18 10:36:56 264【一般訊息】status_code : 
2017-10-18 10:36:56 264【一般訊息】status : 
2017-10-18 10:36:56 264【一般訊息】order_id : 
2017-10-18 10:37:48 074【一般訊息】查詢訂單狀態  訂單編號 : N0002558
2017-10-18 10:37:48 074【一般訊息】傳送的JSON : {
  "OpenKey": "$2a$10$SNgJwYLTGq5gqxFydqbq5.PP7UnBvkNf17vu2YzxXm0esuEXOnK7O",
  "Action": "get",
  "OrderData": {
    "StoreName": "ptbus",
    "OrderId": "N0002558"
  }
}
2017-10-18 10:37:50 609【一般訊息】查詢訂單狀態回傳 : {"date":"2017-10-18 10:38:06","status_code":"0","status":null,"order_id":"1611270143"}



2017-10-18 10:37:50 610【一般訊息】date : 2017-10-18 10:38:06
2017-10-18 10:37:50 610【一般訊息】status_code : 0
2017-10-18 10:37:50 610【一般訊息】status : 
2017-10-18 10:37:50 610【一般訊息】order_id : 1611270143
2017-10-18 10:37:51 303【一般訊息】查詢訂單狀態  訂單編號 : N0002556
2017-10-18 10:37:51 303【一般訊息】傳送的JSON : {
  "OpenKey": "$2a$10$qC7sq3JqW4zux4Ilpw2AxOyrj15B21wl/L5TAdyQ9RDa.tUKW79P2",
  "Action": "get",
  "OrderData": {
    "StoreName": "ptbus",
    "OrderId": "N0002556"
  }
}
2017-10-18 10:37:51 428【一般訊息】查詢訂單狀態回傳 : {"date":"2017-10-18 10:38:07","status_code":"0","status":null,"order_id":"1611270144"}



2017-10-18 10:37:51 429【一般訊息】date : 2017-10-18 10:38:07
2017-10-18 10:37:51 429【一般訊息】status_code : 0
2017-10-18 10:37:51 429【一般訊息】status : 
2017-10-18 10:37:51 430【一般訊息】order_id : 1611270144
2017-10-18 10:37:52 161【一般訊息】查詢訂單狀態  訂單編號 : N0002555
2017-10-18 10:37:52 162【一般訊息】傳送的JSON : {
  "OpenKey": "$2a$10$M1FSCRfAToI9/cdUfsoOXujf9Flh51nozU0WIU1v2EpJmtTt63jby",
  "Action": "get",
  "OrderData": {
    "StoreName": "ptbus",
    "OrderId": "N0002555"
  }
}
2017-10-18 10:37:52 275【一般訊息】查詢訂單狀態回傳 : {"date":"2017-10-18 10:38:08","error":"no order id"}



2017-10-18 10:37:52 275【一般訊息】date : 2017-10-18 10:38:08
2017-10-18 10:37:52 276【一般訊息】status_code : 
2017-10-18 10:37:52 276【一般訊息】status : 
2017-10-18 10:37:52 277【一般訊息】order_id : 
2017-10-18 10:52:01 629【一般訊息】查詢訂單狀態  訂單編號 : N0002558
2017-10-18 10:52:01 630【一般訊息】傳送的JSON : {
  "OpenKey": "$2a$10$OVZQqAPILewj9qQ3TnHdIORpbV/WfLMROJIZZGWigdPYO3Vf/l5oO",
  "Action": "get",
  "OrderData": {
    "StoreName": "ptbus",
    "OrderId": "N0002558"
  }
}
2017-10-18 10:52:01 754【一般訊息】查詢訂單狀態回傳 : {"date":"2017-10-18 10:52:18","status_code":"0","status":null,"order_id":"1611270143"}



2017-10-18 10:52:01 755【一般訊息】date : 2017-10-18 10:52:18
2017-10-18 10:52:01 755【一般訊息】status_code : 0
2017-10-18 10:52:01 755【一般訊息】status : 
2017-10-18 10:52:01 756【一般訊息】order_id : 1611270143
2017-10-18 10:52:02 495【一般訊息】查詢訂單狀態  訂單編號 : N0002556
2017-10-18 10:52:02 496【一般訊息】傳送的JSON : {
  "OpenKey": "$2a$10$gE9B.oKD9EdTSQa5S4Y/yO5z1aNox1xBwjqWDFXD3IUVmMFpd2cYa",
  "Action": "get",
  "OrderData": {
    "StoreName": "ptbus",
    "OrderId": "N0002556"
  }
}
2017-10-18 10:52:02 607【一般訊息】查詢訂單狀態回傳 : {"date":"2017-10-18 10:52:18","status_code":"0","status":null,"order_id":"1611270144"}



2017-10-18 10:52:02 608【一般訊息】date : 2017-10-18 10:52:18
2017-10-18 10:52:02 608【一般訊息】status_code : 0
2017-10-18 10:52:02 608【一般訊息】status : 
2017-10-18 10:52:02 609【一般訊息】order_id : 1611270144
2017-10-18 10:52:03 452【一般訊息】查詢訂單狀態  訂單編號 : N0002555
2017-10-18 10:52:03 453【一般訊息】傳送的JSON : {
  "OpenKey": "$2a$10$zu5hxAzYIjSJvLscgj2s9e97Y8TlyY5JVALEdgvYDPJSQxvUP7jbW",
  "Action": "get",
  "OrderData": {
    "StoreName": "ptbus",
    "OrderId": "N0002555"
  }
}
2017-10-18 10:52:03 572【一般訊息】查詢訂單狀態回傳 : {"date":"2017-10-18 10:52:19","error":"no order id"}



2017-10-18 10:52:03 573【一般訊息】date : 2017-10-18 10:52:19
2017-10-18 10:52:03 573【一般訊息】status_code : 
2017-10-18 10:52:03 573【一般訊息】status : 
2017-10-18 10:52:03 574【一般訊息】order_id : 
2017-10-18 11:02:30 682【一般訊息】查詢訂單狀態  訂單編號 : N0002558
2017-10-18 11:02:30 780【一般訊息】傳送的JSON : {
  "OpenKey": "$2a$10$2UnaLdc0OseFZ9hgXb5yV.Wnx97tGcl5M3ISh.6qwgmSiBRL2KuSi",
  "Action": "get",
  "OrderData": {
    "StoreName": "ptbus",
    "OrderId": "N0002558"
  }
}
2017-10-18 11:02:30 910【一般訊息】查詢訂單狀態回傳 : {"date":"2017-10-18 11:02:47","status_code":"0","status":null,"order_id":"1611270143"}



2017-10-18 11:02:31 002【一般訊息】date : 2017-10-18 11:02:47
2017-10-18 11:02:31 003【一般訊息】status_code : 0
2017-10-18 11:02:31 003【一般訊息】status : 
2017-10-18 11:02:31 004【一般訊息】order_id : 1611270143
2017-10-18 11:02:31 894【一般訊息】查詢訂單狀態  訂單編號 : N0002556
2017-10-18 11:02:31 895【一般訊息】傳送的JSON : {
  "OpenKey": "$2a$10$V3YtJEGlN8pfNzhPlp9E1.4nyjfZzV.TKrZ/cR8A/7SUp4a0oyu1y",
  "Action": "get",
  "OrderData": {
    "StoreName": "ptbus",
    "OrderId": "N0002556"
  }
}
2017-10-18 11:02:32 007【一般訊息】查詢訂單狀態回傳 : {"date":"2017-10-18 11:02:48","status_code":"0","status":null,"order_id":"1611270144"}



2017-10-18 11:02:32 007【一般訊息】date : 2017-10-18 11:02:48
2017-10-18 11:02:32 008【一般訊息】status_code : 0
2017-10-18 11:02:32 008【一般訊息】status : 
2017-10-18 11:02:32 008【一般訊息】order_id : 1611270144
2017-10-18 11:02:32 782【一般訊息】查詢訂單狀態  訂單編號 : N0002555
2017-10-18 11:02:32 783【一般訊息】傳送的JSON : {
  "OpenKey": "$2a$10$SptFekPW.WuJO.VI7U/WA.B7IPZWTltmdHReU2OdZJ3PhdE97MX2G",
  "Action": "get",
  "OrderData": {
    "StoreName": "ptbus",
    "OrderId": "N0002555"
  }
}
2017-10-18 11:02:32 900【一般訊息】查詢訂單狀態回傳 : {"date":"2017-10-18 11:02:49","error":"no order id"}



2017-10-18 11:02:32 900【一般訊息】date : 2017-10-18 11:02:49
2017-10-18 11:02:32 901【一般訊息】status_code : 
2017-10-18 11:02:32 901【一般訊息】status : 
2017-10-18 11:02:32 901【一般訊息】order_id : 
